%YAML 1.1
%TAG !u! tag:unity3d.com,2011:
--- !u!114 &11400000
MonoBehaviour:
  m_ObjectHideFlags: 0
  m_CorrespondingSourceObject: {fileID: 0}
  m_PrefabInstance: {fileID: 0}
  m_PrefabAsset: {fileID: 0}
  m_GameObject: {fileID: 0}
  m_Enabled: 1
  m_EditorHideFlags: 0
  m_Script: {fileID: 11500000, guid: 77dee27d70c5da5478ac4fbd771b4410, type: 3}
  m_Name: Default Brush Collection
  m_EditorClassIdentifier: 
  _brushes:
  - brushObject: {fileID: 3606561997075772820, guid: 4ca27513bf971b54cb7ec4008dbc7541,
      type: 3}
    usePrefabs: 1
    allowIntercollision: 0
    alignToSurface: 0
    randomizeXRotation: 0
    randomizeYRotation: 1
    randomizeZRotation: 0
    parentContainer: {fileID: 0}
    density: 0.2
    brushSize: 100
    minScale: 0.5
    maxScale: 1.5
    offsetFromPivot: {x: 0, y: 0, z: 0}
    rotOffsetFromPivot: {x: 0, y: 0, z: 0}
    minSlope: 0
    maxSlope: 360
    layerFilter:
      serializedVersion: 2
      m_Bits: 4294967295
    isTagFilteringEnabled: 0
    tagFilter: 
  - brushObject: {fileID: 8012250024172297087, guid: 7631966dbbf1c834f996603927f6a965,
      type: 3}
    usePrefabs: 1
    allowIntercollision: 0
    alignToSurface: 0
    randomizeXRotation: 0
    randomizeYRotation: 1
    randomizeZRotation: 0
    parentContainer: {fileID: 0}
    density: 1
    brushSize: 40
    minScale: 0.5
    maxScale: 1.5
    offsetFromPivot: {x: 0, y: 0, z: 0}
    rotOffsetFromPivot: {x: 0, y: 0, z: 0}
    minSlope: 0
    maxSlope: 360
    layerFilter:
      serializedVersion: 2
      m_Bits: 4294967295
    isTagFilteringEnabled: 0
    tagFilter: 
  - brushObject: {fileID: 1850887027849453638, guid: 3d4a69d158afa234b93598bf2fa34c47,
      type: 3}
    usePrefabs: 1
    allowIntercollision: 0
    alignToSurface: 0
    randomizeXRotation: 0
    randomizeYRotation: 1
    randomizeZRotation: 0
    parentContainer: {fileID: 0}
    density: 1
    brushSize: 40
    minScale: 0.5
    maxScale: 1.5
    offsetFromPivot: {x: 0, y: 0, z: 0}
    rotOffsetFromPivot: {x: 0, y: 0, z: 0}
    minSlope: 0
    maxSlope: 360
    layerFilter:
      serializedVersion: 2
      m_Bits: 4294967295
    isTagFilteringEnabled: 0
    tagFilter: 
  - brushObject: {fileID: 7945446324389323826, guid: 07833f3222af08d479c0df747afdd070,
      type: 3}
    usePrefabs: 1
    allowIntercollision: 0
    alignToSurface: 0
    randomizeXRotation: 0
    randomizeYRotation: 1
    randomizeZRotation: 0
    parentContainer: {fileID: 0}
    density: 1
    brushSize: 40
    minScale: 0.5
    maxScale: 1.5
    offsetFromPivot: {x: 0, y: 0, z: 0}
    rotOffsetFromPivot: {x: 0, y: 0, z: 0}
    minSlope: 0
    maxSlope: 360
    layerFilter:
      serializedVersion: 2
      m_Bits: 4294967295
    isTagFilteringEnabled: 0
    tagFilter: 
  - brushObject: {fileID: 3471864993818959883, guid: af24685f05df0a84688d7d7c4dbfbfdb,
      type: 3}
    usePrefabs: 1
    allowIntercollision: 0
    alignToSurface: 0
    randomizeXRotation: 0
    randomizeYRotation: 1
    randomizeZRotation: 0
    parentContainer: {fileID: 0}
    density: 1
    brushSize: 40
    minScale: 0.5
    maxScale: 1.5
    offsetFromPivot: {x: 0, y: 0, z: 0}
    rotOffsetFromPivot: {x: 0, y: 0, z: 0}
    minSlope: 0
    maxSlope: 360
    layerFilter:
      serializedVersion: 2
      m_Bits: 4294967295
    isTagFilteringEnabled: 0
    tagFilter: 
  - brushObject: {fileID: 8831934923732126812, guid: a71b40a58cd5da341b60776bf78074fa,
      type: 3}
    usePrefabs: 1
    allowIntercollision: 0
    alignToSurface: 0
    randomizeXRotation: 0
    randomizeYRotation: 1
    randomizeZRotation: 0
    parentContainer: {fileID: 0}
    density: 1
    brushSize: 40
    minScale: 0.5
    maxScale: 1.5
    offsetFromPivot: {x: 0, y: 0, z: 0}
    rotOffsetFromPivot: {x: 0, y: 0, z: 0}
    minSlope: 0
    maxSlope: 360
    layerFilter:
      serializedVersion: 2
      m_Bits: 4294967295
    isTagFilteringEnabled: 0
    tagFilter: 
  - brushObject: {fileID: 2219935556132796876, guid: 43e111fc8b18292419d1bbc6c033d68f,
      type: 3}
    usePrefabs: 1
    allowIntercollision: 0
    alignToSurface: 0
    randomizeXRotation: 0
    randomizeYRotation: 1
    randomizeZRotation: 0
    parentContainer: {fileID: 0}
    density: 1
    brushSize: 40
    minScale: 0.5
    maxScale: 1.5
    offsetFromPivot: {x: 0, y: 0, z: 0}
    rotOffsetFromPivot: {x: 0, y: 0, z: 0}
    minSlope: 0
    maxSlope: 360
    layerFilter:
      serializedVersion: 2
      m_Bits: 4294967295
    isTagFilteringEnabled: 0
    tagFilter: 
  - brushObject: {fileID: 7403111851893755864, guid: 49a4c5de3ce8c7144b896db7315a6c92,
      type: 3}
    usePrefabs: 1
    allowIntercollision: 0
    alignToSurface: 0
    randomizeXRotation: 0
    randomizeYRotation: 1
    randomizeZRotation: 0
    parentContainer: {fileID: 0}
    density: 1
    brushSize: 40
    minScale: 0.5
    maxScale: 1.5
    offsetFromPivot: {x: 0, y: 0, z: 0}
    rotOffsetFromPivot: {x: 0, y: 0, z: 0}
    minSlope: 0
    maxSlope: 360
    layerFilter:
      serializedVersion: 2
      m_Bits: 4294967295
    isTagFilteringEnabled: 0
    tagFilter: 
  - brushObject: {fileID: 7283272287685345601, guid: 0fd3e75c4aeb01b4ba8433493371ad4d,
      type: 3}
    usePrefabs: 1
    allowIntercollision: 0
    alignToSurface: 0
    randomizeXRotation: 0
    randomizeYRotation: 1
    randomizeZRotation: 0
    parentContainer: {fileID: 0}
    density: 1
    brushSize: 40
    minScale: 0.5
    maxScale: 1.5
    offsetFromPivot: {x: 0, y: 0, z: 0}
    rotOffsetFromPivot: {x: 0, y: 0, z: 0}
    minSlope: 0
    maxSlope: 360
    layerFilter:
      serializedVersion: 2
      m_Bits: 4294967295
    isTagFilteringEnabled: 0
    tagFilter: 
  - brushObject: {fileID: 7174273299936295062, guid: 51c92587d4048cc49bff85142822ad65,
      type: 3}
    usePrefabs: 1
    allowIntercollision: 0
    alignToSurface: 0
    randomizeXRotation: 0
    randomizeYRotation: 1
    randomizeZRotation: 0
    parentContainer: {fileID: 0}
    density: 1
    brushSize: 40
    minScale: 0.5
    maxScale: 1.5
    offsetFromPivot: {x: 0, y: 0, z: 0}
    rotOffsetFromPivot: {x: 0, y: 0, z: 0}
    minSlope: 0
    maxSlope: 360
    layerFilter:
      serializedVersion: 2
      m_Bits: 4294967295
    isTagFilteringEnabled: 0
    tagFilter: 
  - brushObject: {fileID: 8411943470748255743, guid: e087d890dbd985946a58ce2d15087648,
      type: 3}
    usePrefabs: 1
    allowIntercollision: 0
    alignToSurface: 0
    randomizeXRotation: 0
    randomizeYRotation: 1
    randomizeZRotation: 0
    parentContainer: {fileID: 0}
    density: 1
    brushSize: 40
    minScale: 0.5
    maxScale: 1.5
    offsetFromPivot: {x: 0, y: 0, z: 0}
    rotOffsetFromPivot: {x: 0, y: 0, z: 0}
    minSlope: 0
    maxSlope: 360
    layerFilter:
      serializedVersion: 2
      m_Bits: 4294967295
    isTagFilteringEnabled: 0
    tagFilter: 
  - brushObject: {fileID: 8476153032785918642, guid: f8fbe12202a26c241a28f230712586c6,
      type: 3}
    usePrefabs: 1
    allowIntercollision: 0
    alignToSurface: 0
    randomizeXRotation: 0
    randomizeYRotation: 1
    randomizeZRotation: 0
    parentContainer: {fileID: 0}
    density: 1
    brushSize: 40
    minScale: 0.5
    maxScale: 1.5
    offsetFromPivot: {x: 0, y: 0, z: 0}
    rotOffsetFromPivot: {x: 0, y: 0, z: 0}
    minSlope: 0
    maxSlope: 360
    layerFilter:
      serializedVersion: 2
      m_Bits: 4294967295
    isTagFilteringEnabled: 0
    tagFilter: 
  - brushObject: {fileID: 813277308179465547, guid: f0b8f7c268aff9e458fa312fd48803c7,
      type: 3}
    usePrefabs: 1
    allowIntercollision: 0
    alignToSurface: 0
    randomizeXRotation: 0
    randomizeYRotation: 1
    randomizeZRotation: 0
    parentContainer: {fileID: 0}
    density: 1
    brushSize: 40
    minScale: 0.5
    maxScale: 1.5
    offsetFromPivot: {x: 0, y: 0, z: 0}
    rotOffsetFromPivot: {x: 0, y: 0, z: 0}
    minSlope: 0
    maxSlope: 360
    layerFilter:
      serializedVersion: 2
      m_Bits: 4294967295
    isTagFilteringEnabled: 0
    tagFilter: 
  - brushObject: {fileID: 1454602835089939769, guid: b4cd037c11316984091c30541448e100,
      type: 3}
    usePrefabs: 1
    allowIntercollision: 0
    alignToSurface: 0
    randomizeXRotation: 0
    randomizeYRotation: 1
    randomizeZRotation: 0
    parentContainer: {fileID: 0}
    density: 1
    brushSize: 40
    minScale: 0.5
    maxScale: 1.5
    offsetFromPivot: {x: 0, y: 0, z: 0}
    rotOffsetFromPivot: {x: 0, y: 0, z: 0}
    minSlope: 0
    maxSlope: 360
    layerFilter:
      serializedVersion: 2
      m_Bits: 4294967295
    isTagFilteringEnabled: 0
    tagFilter: 
  - brushObject: {fileID: 2327683496535049096, guid: 3dd8b65c9be9a4d43b2744f07090ef24,
      type: 3}
    usePrefabs: 1
    allowIntercollision: 0
    alignToSurface: 0
    randomizeXRotation: 0
    randomizeYRotation: 1
    randomizeZRotation: 0
    parentContainer: {fileID: 0}
    density: 1
    brushSize: 40
    minScale: 0.5
    maxScale: 1.5
    offsetFromPivot: {x: 0, y: 0, z: 0}
    rotOffsetFromPivot: {x: 0, y: 0, z: 0}
    minSlope: 0
    maxSlope: 360
    layerFilter:
      serializedVersion: 2
      m_Bits: 4294967295
    isTagFilteringEnabled: 0
    tagFilter: 
  - brushObject: {fileID: 6045401468388905682, guid: 8b1ab4ccfc99062459acd4e041a58f2d,
      type: 3}
    usePrefabs: 1
    allowIntercollision: 0
    alignToSurface: 0
    randomizeXRotation: 0
    randomizeYRotation: 1
    randomizeZRotation: 0
    parentContainer: {fileID: 0}
    density: 1.7
    brushSize: 50
    minScale: 3
    maxScale: 5
    offsetFromPivot: {x: 0, y: 0, z: 0}
    rotOffsetFromPivot: {x: 0, y: 0, z: 0}
    minSlope: 0
    maxSlope: 360
    layerFilter:
      serializedVersion: 2
      m_Bits: 4294967295
    isTagFilteringEnabled: 0
    tagFilter: 
  - brushObject: {fileID: 6159711944402336371, guid: 89e90c40599e37646bd42159b14737d3,
      type: 3}
    usePrefabs: 1
    allowIntercollision: 0
    alignToSurface: 0
    randomizeXRotation: 0
    randomizeYRotation: 1
    randomizeZRotation: 0
    parentContainer: {fileID: 0}
    density: 1
    brushSize: 40
    minScale: 0.5
    maxScale: 1.5
    offsetFromPivot: {x: 0, y: 0, z: 0}
    rotOffsetFromPivot: {x: 0, y: 0, z: 0}
    minSlope: 0
    maxSlope: 360
    layerFilter:
      serializedVersion: 2
      m_Bits: 4294967295
    isTagFilteringEnabled: 0
    tagFilter: 
  - brushObject: {fileID: 5342853681565234072, guid: 88fb89f09e6466949b85a09c51376797,
      type: 3}
    usePrefabs: 1
    allowIntercollision: 0
    alignToSurface: 0
    randomizeXRotation: 0
    randomizeYRotation: 1
    randomizeZRotation: 0
    parentContainer: {fileID: 0}
    density: 1
    brushSize: 40
    minScale: 0.5
    maxScale: 1.5
    offsetFromPivot: {x: 0, y: 0, z: 0}
    rotOffsetFromPivot: {x: 0, y: 0, z: 0}
    minSlope: 0
    maxSlope: 360
    layerFilter:
      serializedVersion: 2
      m_Bits: 4294967295
    isTagFilteringEnabled: 0
    tagFilter: 
  primarySelectedBrush:
    brushObject: {fileID: 6045401468388905682, guid: 8b1ab4ccfc99062459acd4e041a58f2d,
      type: 3}
    usePrefabs: 1
    allowIntercollision: 0
    alignToSurface: 0
    randomizeXRotation: 0
    randomizeYRotation: 1
    randomizeZRotation: 0
    parentContainer: {fileID: 0}
    density: 1.7
    brushSize: 50
    minScale: 3
    maxScale: 5
    offsetFromPivot: {x: 0, y: 0, z: 0}
    rotOffsetFromPivot: {x: 0, y: 0, z: 0}
    minSlope: 0
    maxSlope: 360
    layerFilter:
      serializedVersion: 2
      m_Bits: 4294967295
    isTagFilteringEnabled: 0
    tagFilter: 
  selectedBrushes:
  - brushObject: {fileID: 6045401468388905682, guid: 8b1ab4ccfc99062459acd4e041a58f2d,
      type: 3}
    usePrefabs: 1
    allowIntercollision: 0
    alignToSurface: 0
    randomizeXRotation: 0
    randomizeYRotation: 1
    randomizeZRotation: 0
    parentContainer: {fileID: 0}
    density: 1.7
    brushSize: 50
    minScale: 3
    maxScale: 5
    offsetFromPivot: {x: 0, y: 0, z: 0}
    rotOffsetFromPivot: {x: 0, y: 0, z: 0}
    minSlope: 0
    maxSlope: 360
    layerFilter:
      serializedVersion: 2
      m_Bits: 4294967295
    isTagFilteringEnabled: 0
    tagFilter: 
