%YAML 1.1
%TAG !u! tag:unity3d.com,2011:
--- !u!1 &7134836247992077385
GameObject:
  m_ObjectHideFlags: 0
  m_CorrespondingSourceObject: {fileID: 0}
  m_PrefabInstance: {fileID: 0}
  m_PrefabAsset: {fileID: 0}
  serializedVersion: 6
  m_Component:
  - component: {fileID: 7134836247992077386}
  - component: {fileID: 7134836247992077382}
  - component: {fileID: 7134836247992077381}
  m_Layer: 0
  m_Name: vfxLAnding
  m_TagString: Untagged
  m_Icon: {fileID: 0}
  m_NavMeshLayer: 0
  m_StaticEditorFlags: 0
  m_IsActive: 1
--- !u!4 &7134836247992077386
Transform:
  m_ObjectHideFlags: 0
  m_CorrespondingSourceObject: {fileID: 0}
  m_PrefabInstance: {fileID: 0}
  m_PrefabAsset: {fileID: 0}
  m_GameObject: {fileID: 7134836247992077385}
  m_LocalRotation: {x: -0, y: -0, z: -0, w: 1}
  m_LocalPosition: {x: 0, y: 0, z: 0}
  m_LocalScale: {x: 1, y: 1, z: 1}
  m_Children: []
  m_Father: {fileID: 0}
  m_RootOrder: 0
  m_LocalEulerAnglesHint: {x: 0, y: 0, z: 0}
--- !u!2083052967 &7134836247992077382
VisualEffect:
  m_ObjectHideFlags: 0
  m_CorrespondingSourceObject: {fileID: 0}
  m_PrefabInstance: {fileID: 0}
  m_PrefabAsset: {fileID: 0}
  m_GameObject: {fileID: 7134836247992077385}
  m_Enabled: 1
  m_Asset: {fileID: 8926484042661614526, guid: a0f92494d336ed8449baba2baab9d028, type: 3}
  m_InitialEventName: OnPlay
  m_InitialEventNameOverriden: 0
  m_StartSeed: 0
  m_ResetSeedOnPlay: 1
  m_PropertySheet:
    m_Float:
      m_Array:
      - m_Value: 0.5
        m_Name: Shere_radius
        m_Overridden: 1
      - m_Value: 4
        m_Name: NbParticulesLittle
        m_Overridden: 1
      - m_Value: 2
        m_Name: NbParticulesMid
        m_Overridden: 1
      - m_Value: 1
        m_Name: NbParticulesBig
        m_Overridden: 1
      - m_Value: 2
        m_Name: SizeLittle
        m_Overridden: 1
      - m_Value: 0.7
        m_Name: SizeBig
        m_Overridden: 1
      - m_Value: 0.3
        m_Name: SizeMid
        m_Overridden: 1
      - m_Value: 1.2
        m_Name: GravityForce
        m_Overridden: 1
    m_Vector2f:
      m_Array: []
    m_Vector3f:
      m_Array:
      - m_Value: {x: 5.74, y: 4.74, z: -13.06}
        m_Name: Shere_center
        m_Overridden: 1
    m_Vector4f:
      m_Array: []
    m_Uint:
      m_Array: []
    m_Int:
      m_Array: []
    m_Matrix4x4f:
      m_Array: []
    m_AnimationCurve:
      m_Array: []
    m_Gradient:
      m_Array:
      - m_Value:
          serializedVersion: 2
          key0: {r: 0, g: 0, b: 0, a: 1}
          key1: {r: 0.7735849, g: 0.7735849, b: 0.7735849, a: 1}
          key2: {r: 0.7490196, g: 0.7490196, b: 0.7490196, a: 0.8627451}
          key3: {r: 1.9294118, g: 0, b: 0.039215688, a: 0}
          key4: {r: 0.1882353, g: 0.023529412, b: 0.023529412, a: 0}
          key5: {r: 0, g: 0, b: 0, a: 0}
          key6: {r: 0, g: 0, b: 0, a: 0}
          key7: {r: 0, g: 0, b: 0, a: 0}
          ctime0: 0
          ctime1: 4819
          ctime2: 65535
          ctime3: 35659
          ctime4: 48380
          ctime5: 0
          ctime6: 0
          ctime7: 0
          atime0: 0
          atime1: 26021
          atime2: 61102
          atime3: 65535
          atime4: 65535
          atime5: 65535
          atime6: 0
          atime7: 0
          m_Mode: 0
          m_NumColorKeys: 2
          m_NumAlphaKeys: 4
        m_Name: Gradient
        m_Overridden: 1
    m_NamedObject:
      m_Array: []
    m_Bool:
      m_Array: []
--- !u!73398921 &7134836247992077381
VFXRenderer:
  m_ObjectHideFlags: 0
  m_CorrespondingSourceObject: {fileID: 0}
  m_PrefabInstance: {fileID: 0}
  m_PrefabAsset: {fileID: 0}
  m_GameObject: {fileID: 7134836247992077385}
  m_Enabled: 1
  m_CastShadows: 0
  m_ReceiveShadows: 0
  m_DynamicOccludee: 1
  m_MotionVectors: 0
  m_LightProbeUsage: 0
  m_ReflectionProbeUsage: 0
  m_RayTracingMode: 0
  m_RenderingLayerMask: 1
  m_RendererPriority: 0
  m_Materials:
  - {fileID: 0}
  - {fileID: 0}
  - {fileID: 0}
  m_StaticBatchInfo:
    firstSubMesh: 0
    subMeshCount: 0
  m_StaticBatchRoot: {fileID: 0}
  m_ProbeAnchor: {fileID: 0}
  m_LightProbeVolumeOverride: {fileID: 0}
  m_ScaleInLightmap: 1
  m_ReceiveGI: 1
  m_PreserveUVs: 0
  m_IgnoreNormalsForChartDetection: 0
  m_ImportantGI: 0
  m_StitchLightmapSeams: 1
  m_SelectedEditorRenderState: 3
  m_MinimumChartSize: 4
  m_AutoUVMaxDistance: 0.5
  m_AutoUVMaxAngle: 89
  m_LightmapParameters: {fileID: 0}
  m_SortingLayerID: 0
  m_SortingLayer: 0
  m_SortingOrder: 0
