%YAML 1.1
%TAG !u! tag:unity3d.com,2011:
--- !u!1 &8794104605467347802
GameObject:
  m_ObjectHideFlags: 0
  m_CorrespondingSourceObject: {fileID: 0}
  m_PrefabInstance: {fileID: 0}
  m_PrefabAsset: {fileID: 0}
  serializedVersion: 6
  m_Component:
  - component: {fileID: 8794104605467347803}
  m_Layer: 0
  m_Name: ArbresBordure
  m_TagString: Untagged
  m_Icon: {fileID: 0}
  m_NavMeshLayer: 0
  m_StaticEditorFlags: 0
  m_IsActive: 1
--- !u!4 &8794104605467347803
Transform:
  m_ObjectHideFlags: 0
  m_CorrespondingSourceObject: {fileID: 0}
  m_PrefabInstance: {fileID: 0}
  m_PrefabAsset: {fileID: 0}
  m_GameObject: {fileID: 8794104605467347802}
  m_LocalRotation: {x: 0, y: 0, z: 0, w: 1}
  m_LocalPosition: {x: 0, y: 0, z: 0}
  m_LocalScale: {x: 1, y: 1, z: 1}
  m_Children:
  - {fileID: 5460980177098228405}
  m_Father: {fileID: 0}
  m_RootOrder: 0
  m_LocalEulerAnglesHint: {x: 0, y: 0, z: 0}
--- !u!1001 &8774236443489613790
PrefabInstance:
  m_ObjectHideFlags: 0
  serializedVersion: 2
  m_Modification:
    m_TransformParent: {fileID: 8794104605467347803}
    m_Modifications:
    - target: {fileID: 3606561997075772779, guid: 4ca27513bf971b54cb7ec4008dbc7541,
        type: 3}
      propertyPath: m_LocalPosition.x
      value: 0
      objectReference: {fileID: 0}
    - target: {fileID: 3606561997075772779, guid: 4ca27513bf971b54cb7ec4008dbc7541,
        type: 3}
      propertyPath: m_LocalPosition.y
      value: 0
      objectReference: {fileID: 0}
    - target: {fileID: 3606561997075772779, guid: 4ca27513bf971b54cb7ec4008dbc7541,
        type: 3}
      propertyPath: m_LocalPosition.z
      value: 0
      objectReference: {fileID: 0}
    - target: {fileID: 3606561997075772779, guid: 4ca27513bf971b54cb7ec4008dbc7541,
        type: 3}
      propertyPath: m_LocalRotation.x
      value: -0
      objectReference: {fileID: 0}
    - target: {fileID: 3606561997075772779, guid: 4ca27513bf971b54cb7ec4008dbc7541,
        type: 3}
      propertyPath: m_LocalRotation.y
      value: -0
      objectReference: {fileID: 0}
    - target: {fileID: 3606561997075772779, guid: 4ca27513bf971b54cb7ec4008dbc7541,
        type: 3}
      propertyPath: m_LocalRotation.z
      value: -0
      objectReference: {fileID: 0}
    - target: {fileID: 3606561997075772779, guid: 4ca27513bf971b54cb7ec4008dbc7541,
        type: 3}
      propertyPath: m_LocalRotation.w
      value: 1
      objectReference: {fileID: 0}
    - target: {fileID: 3606561997075772779, guid: 4ca27513bf971b54cb7ec4008dbc7541,
        type: 3}
      propertyPath: m_RootOrder
      value: 0
      objectReference: {fileID: 0}
    - target: {fileID: 3606561997075772779, guid: 4ca27513bf971b54cb7ec4008dbc7541,
        type: 3}
      propertyPath: m_LocalEulerAnglesHint.x
      value: 0
      objectReference: {fileID: 0}
    - target: {fileID: 3606561997075772779, guid: 4ca27513bf971b54cb7ec4008dbc7541,
        type: 3}
      propertyPath: m_LocalEulerAnglesHint.y
      value: 0
      objectReference: {fileID: 0}
    - target: {fileID: 3606561997075772779, guid: 4ca27513bf971b54cb7ec4008dbc7541,
        type: 3}
      propertyPath: m_LocalEulerAnglesHint.z
      value: 0
      objectReference: {fileID: 0}
    - target: {fileID: 3606561997075772820, guid: 4ca27513bf971b54cb7ec4008dbc7541,
        type: 3}
      propertyPath: m_Name
      value: DoublePinBleu
      objectReference: {fileID: 0}
    m_RemovedComponents: []
  m_SourcePrefab: {fileID: 100100000, guid: 4ca27513bf971b54cb7ec4008dbc7541, type: 3}
--- !u!4 &5460980177098228405 stripped
Transform:
  m_CorrespondingSourceObject: {fileID: 3606561997075772779, guid: 4ca27513bf971b54cb7ec4008dbc7541,
    type: 3}
  m_PrefabInstance: {fileID: 8774236443489613790}
  m_PrefabAsset: {fileID: 0}
