%YAML 1.1
%TAG !u! tag:unity3d.com,2011:
--- !u!1 &4337215572185393038
GameObject:
  m_ObjectHideFlags: 0
  m_CorrespondingSourceObject: {fileID: 0}
  m_PrefabInstance: {fileID: 0}
  m_PrefabAsset: {fileID: 0}
  serializedVersion: 6
  m_Component:
  - component: {fileID: 4337215572185393137}
  - component: {fileID: 4337215572185393136}
  - component: {fileID: 2973396636662772955}
  m_Layer: 0
  m_Name: RoomSetup
  m_TagString: Untagged
  m_Icon: {fileID: 0}
  m_NavMeshLayer: 0
  m_StaticEditorFlags: 0
  m_IsActive: 1
--- !u!4 &4337215572185393137
Transform:
  m_ObjectHideFlags: 0
  m_CorrespondingSourceObject: {fileID: 0}
  m_PrefabInstance: {fileID: 0}
  m_PrefabAsset: {fileID: 0}
  m_GameObject: {fileID: 4337215572185393038}
  m_LocalRotation: {x: 0, y: 0, z: 0, w: 1}
  m_LocalPosition: {x: 0, y: 0, z: 0}
  m_LocalScale: {x: 1, y: 1, z: 1}
  m_Children: []
  m_Father: {fileID: 0}
  m_RootOrder: 0
  m_LocalEulerAnglesHint: {x: 0, y: 0, z: 0}
--- !u!114 &4337215572185393136
MonoBehaviour:
  m_ObjectHideFlags: 0
  m_CorrespondingSourceObject: {fileID: 0}
  m_PrefabInstance: {fileID: 0}
  m_PrefabAsset: {fileID: 0}
  m_GameObject: {fileID: 4337215572185393038}
  m_Enabled: 1
  m_EditorHideFlags: 0
  m_Script: {fileID: 11500000, guid: f5bc4272e6e4f9b408e7e02dd8db3ff6, type: 3}
  m_Name: 
  m_EditorClassIdentifier: 
  playerUiPrefab: {fileID: 4124611862992336670, guid: 95a8629550b3f9440b66c0064c272ece,
    type: 3}
  crosshair: {fileID: 0}
  initialLocation: {fileID: 0}
  spaceBetweenPlayerUi: 62
  speedToRegainHisPlace: 70
  roomStartMenu: {fileID: 0}
  startGameButton: {fileID: 0}
  roomParameterButton: {fileID: 0}
  backButton: {fileID: 0}
  startButton: {fileID: 0}
  allOptionsButtons:
  - {fileID: 0}
  - {fileID: 0}
  - {fileID: 0}
  - {fileID: 0}
  - {fileID: 0}
  slider_SizeRace: {fileID: 0}
  roomOptionMenu: {fileID: 0}
  playerPrefabName: Player_Room
  spawnPoints:
  - {fileID: 0}
  - {fileID: 0}
  - {fileID: 0}
  - {fileID: 0}
  - {fileID: 0}
  - {fileID: 0}
  - {fileID: 0}
  - {fileID: 0}
  - {fileID: 0}
  - {fileID: 0}
  - {fileID: 0}
  - {fileID: 0}
  - {fileID: 0}
  - {fileID: 0}
  - {fileID: 0}
  - {fileID: 0}
  - {fileID: 0}
  sceneId: 3
  playerNumberText: {fileID: 0}
  roomNameText: {fileID: 0}
  isMasterText: {fileID: 0}
  isNotMasterText: {fileID: 0}
  parentTree: {fileID: 0}
  txt_RaceSize: {fileID: 0}
  raceID_Dropdown: {fileID: 0}
  raceSelectionDebug: {fileID: 0}
  newPlayerPrefab: {fileID: 0}
  startGameButtonTextColors:
  - {r: 0.08235294, g: 0.5686275, b: 0.22745098, a: 1}
  - {r: 0.5566038, g: 0.5566038, b: 0.5566038, a: 1}
  roomOptionButtonTextColors:
  - {r: 0.96862745, g: 0.5803922, b: 0, a: 1}
  - {r: 0.5568628, g: 0.5568628, b: 0.5568628, a: 1}
  allCheckmarks:
  - {fileID: 0}
  - {fileID: 0}
  - {fileID: 0}
  - {fileID: 0}
--- !u!114 &2973396636662772955
MonoBehaviour:
  m_ObjectHideFlags: 0
  m_CorrespondingSourceObject: {fileID: 0}
  m_PrefabInstance: {fileID: 0}
  m_PrefabAsset: {fileID: 0}
  m_GameObject: {fileID: 4337215572185393038}
  m_Enabled: 1
  m_EditorHideFlags: 0
  m_Script: {fileID: 11500000, guid: aa584fbee541324448dd18d8409c7a41, type: 3}
  m_Name: 
  m_EditorClassIdentifier: 
  ObservedComponentsFoldoutOpen: 1
  Group: 0
  prefixField: -1
  Synchronization: 3
  OwnershipTransfer: 0
  observableSearch: 2
  ObservedComponents: []
  sceneViewId: 0
  InstantiationId: 0
  isRuntimeInstantiated: 0
