%YAML 1.1
%TAG !u! tag:unity3d.com,2011:
--- !u!1 &274336474969515029
GameObject:
  m_ObjectHideFlags: 0
  m_CorrespondingSourceObject: {fileID: 0}
  m_PrefabInstance: {fileID: 0}
  m_PrefabAsset: {fileID: 0}
  serializedVersion: 6
  m_Component:
  - component: {fileID: 8306160217128536850}
  - component: {fileID: 3008202932280882048}
  - component: {fileID: 6110570607531184137}
  m_Layer: 0
  m_Name: Mesh
  m_TagString: Untagged
  m_Icon: {fileID: 0}
  m_NavMeshLayer: 0
  m_StaticEditorFlags: 0
  m_IsActive: 1
--- !u!4 &8306160217128536850
Transform:
  m_ObjectHideFlags: 0
  m_CorrespondingSourceObject: {fileID: 0}
  m_PrefabInstance: {fileID: 0}
  m_PrefabAsset: {fileID: 0}
  m_GameObject: {fileID: 274336474969515029}
  m_LocalRotation: {x: -0, y: 0.89434546, z: -0, w: 0.4473772}
  m_LocalPosition: {x: -2.246, y: -1.381, z: 4.483}
  m_LocalScale: {x: 0.1, y: 0.1, z: 0.1}
  m_Children:
  - {fileID: 8494303354654433372}
  m_Father: {fileID: 0}
  m_RootOrder: 0
  m_LocalEulerAnglesHint: {x: 0, y: 126.84901, z: 0}
--- !u!33 &3008202932280882048
MeshFilter:
  m_ObjectHideFlags: 0
  m_CorrespondingSourceObject: {fileID: 0}
  m_PrefabInstance: {fileID: 0}
  m_PrefabAsset: {fileID: 0}
  m_GameObject: {fileID: 274336474969515029}
  m_Mesh: {fileID: 10207, guid: 0000000000000000e000000000000000, type: 0}
--- !u!23 &6110570607531184137
MeshRenderer:
  m_ObjectHideFlags: 0
  m_CorrespondingSourceObject: {fileID: 0}
  m_PrefabInstance: {fileID: 0}
  m_PrefabAsset: {fileID: 0}
  m_GameObject: {fileID: 274336474969515029}
  m_Enabled: 1
  m_CastShadows: 1
  m_ReceiveShadows: 1
  m_DynamicOccludee: 1
  m_MotionVectors: 1
  m_LightProbeUsage: 1
  m_ReflectionProbeUsage: 1
  m_RayTracingMode: 2
  m_RenderingLayerMask: 1
  m_RendererPriority: 0
  m_Materials:
  - {fileID: 2100000, guid: 859c6d465eb7ca941bffeeee23a8ed12, type: 2}
  m_StaticBatchInfo:
    firstSubMesh: 0
    subMeshCount: 0
  m_StaticBatchRoot: {fileID: 0}
  m_ProbeAnchor: {fileID: 0}
  m_LightProbeVolumeOverride: {fileID: 0}
  m_ScaleInLightmap: 1
  m_ReceiveGI: 1
  m_PreserveUVs: 0
  m_IgnoreNormalsForChartDetection: 0
  m_ImportantGI: 0
  m_StitchLightmapSeams: 1
  m_SelectedEditorRenderState: 3
  m_MinimumChartSize: 4
  m_AutoUVMaxDistance: 0.5
  m_AutoUVMaxAngle: 89
  m_LightmapParameters: {fileID: 0}
  m_SortingLayerID: 0
  m_SortingLayer: 0
  m_SortingOrder: 0
--- !u!1001 &4493369082391389036
PrefabInstance:
  m_ObjectHideFlags: 0
  serializedVersion: 2
  m_Modification:
    m_TransformParent: {fileID: 8306160217128536850}
    m_Modifications:
    - target: {fileID: 1045559770721362481, guid: 17c8cd6cef913514ba93540df82f40bd,
        type: 3}
      propertyPath: m_Name
      value: VisageTest
      objectReference: {fileID: 0}
    - target: {fileID: 5456802244286432048, guid: 17c8cd6cef913514ba93540df82f40bd,
        type: 3}
      propertyPath: m_LocalPosition.x
      value: 0
      objectReference: {fileID: 0}
    - target: {fileID: 5456802244286432048, guid: 17c8cd6cef913514ba93540df82f40bd,
        type: 3}
      propertyPath: m_LocalPosition.y
      value: -0.023
      objectReference: {fileID: 0}
    - target: {fileID: 5456802244286432048, guid: 17c8cd6cef913514ba93540df82f40bd,
        type: 3}
      propertyPath: m_LocalPosition.z
      value: -0.541
      objectReference: {fileID: 0}
    - target: {fileID: 5456802244286432048, guid: 17c8cd6cef913514ba93540df82f40bd,
        type: 3}
      propertyPath: m_LocalRotation.x
      value: 0
      objectReference: {fileID: 0}
    - target: {fileID: 5456802244286432048, guid: 17c8cd6cef913514ba93540df82f40bd,
        type: 3}
      propertyPath: m_LocalRotation.y
      value: 0
      objectReference: {fileID: 0}
    - target: {fileID: 5456802244286432048, guid: 17c8cd6cef913514ba93540df82f40bd,
        type: 3}
      propertyPath: m_LocalRotation.z
      value: 0
      objectReference: {fileID: 0}
    - target: {fileID: 5456802244286432048, guid: 17c8cd6cef913514ba93540df82f40bd,
        type: 3}
      propertyPath: m_LocalRotation.w
      value: 1
      objectReference: {fileID: 0}
    - target: {fileID: 5456802244286432048, guid: 17c8cd6cef913514ba93540df82f40bd,
        type: 3}
      propertyPath: m_RootOrder
      value: 0
      objectReference: {fileID: 0}
    - target: {fileID: 5456802244286432048, guid: 17c8cd6cef913514ba93540df82f40bd,
        type: 3}
      propertyPath: m_LocalEulerAnglesHint.x
      value: 0
      objectReference: {fileID: 0}
    - target: {fileID: 5456802244286432048, guid: 17c8cd6cef913514ba93540df82f40bd,
        type: 3}
      propertyPath: m_LocalEulerAnglesHint.y
      value: 0
      objectReference: {fileID: 0}
    - target: {fileID: 5456802244286432048, guid: 17c8cd6cef913514ba93540df82f40bd,
        type: 3}
      propertyPath: m_LocalEulerAnglesHint.z
      value: 0
      objectReference: {fileID: 0}
    m_RemovedComponents: []
  m_SourcePrefab: {fileID: 100100000, guid: 17c8cd6cef913514ba93540df82f40bd, type: 3}
--- !u!4 &8494303354654433372 stripped
Transform:
  m_CorrespondingSourceObject: {fileID: 5456802244286432048, guid: 17c8cd6cef913514ba93540df82f40bd,
    type: 3}
  m_PrefabInstance: {fileID: 4493369082391389036}
  m_PrefabAsset: {fileID: 0}
