%YAML 1.1
%TAG !u! tag:unity3d.com,2011:
--- !u!21 &2100000
Material:
  serializedVersion: 6
  m_ObjectHideFlags: 0
  m_CorrespondingSourceObject: {fileID: 0}
  m_PrefabInstance: {fileID: 0}
  m_PrefabAsset: {fileID: 0}
  m_Name: m_fromage 2
  m_Shader: {fileID: -6465566751694194690, guid: 469484fee7ca80c40b92e155d1de8b0a,
    type: 3}
  m_ShaderKeywords: 
  m_LightmapFlags: 4
  m_EnableInstancingVariants: 0
  m_DoubleSidedGI: 0
  m_CustomRenderQueue: -1
  stringTagMap: {}
  disabledShaderPasses: []
  m_SavedProperties:
    serializedVersion: 3
    m_TexEnvs:
    - Texture2D_48107305:
        m_Texture: {fileID: 2800000, guid: b891049aaeec0de48ae7d9196fb6f8b8, type: 3}
        m_Scale: {x: 1, y: 1}
        m_Offset: {x: 0, y: 0}
    - Texture2D_C6827B17:
        m_Texture: {fileID: 2800000, guid: b891049aaeec0de48ae7d9196fb6f8b8, type: 3}
        m_Scale: {x: 1, y: 1}
        m_Offset: {x: 0, y: 0}
    m_Floats:
    - AlphaShader: 0
    - Vector1_3601A6E8: 0
    - Vector1_AB36ED4: 1.07
    - Vector1_C28E677F: 0.0001
    - Vector1_E080971D: 21.6
    - Vector1_EC788C07: 0.15
    - Vector1_F3A82330: 0.02
    m_Colors:
    - Color_A58964B6: {r: 1, g: 0.9725491, b: 0, a: 0}
    - Color_EC8FF150: {r: 1, g: 0.914049, b: 0, a: 0}
    - Vector2_9AB49B0: {r: 10, g: 10, b: 0, a: 0}
--- !u!114 &7034506293755715954
MonoBehaviour:
  m_ObjectHideFlags: 11
  m_CorrespondingSourceObject: {fileID: 0}
  m_PrefabInstance: {fileID: 0}
  m_PrefabAsset: {fileID: 0}
  m_GameObject: {fileID: 0}
  m_Enabled: 1
  m_EditorHideFlags: 0
  m_Script: {fileID: 11500000, guid: d0353a89b1f911e48b9e16bdc9f2e058, type: 3}
  m_Name: 
  m_EditorClassIdentifier: 
  version: 1
