%YAML 1.1
%TAG !u! tag:unity3d.com,2011:
--- !u!21 &2100000
Material:
  serializedVersion: 6
  m_ObjectHideFlags: 0
  m_CorrespondingSourceObject: {fileID: 0}
  m_PrefabInstance: {fileID: 0}
  m_PrefabAsset: {fileID: 0}
  m_Name: Magma
  m_Shader: {fileID: -6465566751694194690, guid: 3e88190f7ae0b4c41808960eb7467b5f,
    type: 3}
  m_ShaderKeywords: 
  m_LightmapFlags: 4
  m_EnableInstancingVariants: 0
  m_DoubleSidedGI: 1
  m_CustomRenderQueue: -1
  stringTagMap: {}
  disabledShaderPasses: []
  m_SavedProperties:
    serializedVersion: 3
    m_TexEnvs:
    - Texture2D_3CBF775A:
        m_Texture: {fileID: 2800000, guid: 8736578dffebfe94abddea2ff0d3c2a0, type: 3}
        m_Scale: {x: 1, y: 1}
        m_Offset: {x: 0, y: 0}
    - Texture2D_B2EE2DE4:
        m_Texture: {fileID: 2800000, guid: 03e2dd56df66a2046972b36f8564bd63, type: 3}
        m_Scale: {x: 1, y: 1}
        m_Offset: {x: 0, y: 0}
    m_Floats:
    - Vector1_3D2A0AB1: -9.76
    - Vector1_4110F7C8: 0.76
    - Vector1_95940609: 1
    - Vector1_9DBDE6C4: 20
    - Vector1_DDD74187: 3.73
    - Vector1_F35559AE: 0.1
    m_Colors:
    - Color_76274958: {r: 4.265687, g: 1.4038966, b: 0, a: 1}
