digraph G {
node0 [shape="box" color="cyan" style="filled" label="VFXExpressionMax Float2
nb_a"]
node1 [shape="box" label="VFXValue`1 Float2 ((2.0, 7.0))"]
node2 [shape="box" color="lightslategray" style="filled" label="VFXValue`1 Float2 ((0.0, 0.0))"]
node3 [shape="box" color="steelblue" style="filled" label="VFXValue`1 Float2 ((2.0, 2.0))
period_a"]
node4 [shape="box" color="steelblue" style="filled" label="VFXValue`1 Float3 ((-0.1, 0.8, -0.2))
bounds_center"]
node5 [shape="box" color="steelblue" style="filled" label="VFXValue`1 Float3 ((2.3, 3.7, 2.3))
bounds_size"]
node6 [shape="box" color="steelblue" style="filled" label="VFXValue`1 Mesh (VFXNeige (UnityEngine.Mesh))
mesh"]
node7 [shape="box" color="steelblue" style="filled" label="VFXValue`1 Uint32 (4294967295)
subMeshMask"]
node8 [shape="box" color="cyan" style="filled" label="VFXExpressionExtractComponent Float
A_a"]
node9 [shape="box" label="VFXValue`1 Float2 ((0.5, 1.0))"]
node10 [shape="box" color="cyan" style="filled" label="VFXExpressionExtractComponent Float
B_a"]
node11 [shape="box" color="cyan" style="filled" label="VFXExpressionCombine Float3
ArcSphere_sphere_center_b"]
node12 [shape="box" label="VFXExpressionExtractComponent Float"]
node13 [shape="box" label="VFXValue`1 Float3 ((0.0, 0.0, 0.0))"]
node14 [shape="box" label="VFXExpressionExtractComponent Float"]
node15 [shape="box" label="VFXExpressionExtractComponent Float"]
node16 [shape="box" color="cyan" style="filled" label="VFXExpressionExtractComponent Float
ArcSphere_sphere_radius_b"]
node17 [shape="box" label="VFXExpressionMul Float3"]
node18 [shape="box" label="VFXValue`1 Float3 ((1.0, 1.0, 1.0))"]
node19 [shape="box" label="VFXExpressionCombine Float3"]
node20 [shape="box" label="VFXValue`1 Float (0,01)"]
node21 [shape="box" color="steelblue" style="filled" label="VFXValue`1 Float (6,233462)
ArcSphere_arc_b"]
node22 [shape="box" color="steelblue" style="filled" label="VFXValue`1 Float (1)
volumeFactor_b"]
node23 [shape="box" color="cyan" style="filled" label="VFXExpressionCombine Float3
A_c"]
node24 [shape="box" label="VFXExpressionExtractComponent Float"]
node25 [shape="box" label="VFXValue`1 Float2 ((-2.0, 2.0))"]
node26 [shape="box" color="cyan" style="filled" label="VFXExpressionCombine Float3
B_c"]
node27 [shape="box" label="VFXExpressionExtractComponent Float"]
node28 [shape="box" color="steelblue" style="filled" label="VFXValue`1 Float3 ((0.0, 0.0, 0.0))
A_d"]
node29 [shape="box" color="steelblue" style="filled" label="VFXValue`1 Float3 ((360.0, 360.0, 360.0))
B_d"]
node30 [shape="box" color="cyan" style="filled" label="VFXExpressionTransformVector Float3
Force_a"]
node31 [shape="box" label="VFXBuiltInExpression Matrix4x4 (LocalToWorld)"]
node32 [shape="box" color="lightslategray" style="filled" label="VFXValue`1 Float3 ((0.0, -20.0, 0.0))"]
node33 [shape="box" color="cyan" style="filled" label="VFXBuiltInExpression Float (DeltaTime)
deltaTime_a
deltaTime_b
deltaTime_c
deltaTime_d"]
node34 [shape="box" color="cyan" style="filled" label="VFXExpressionBakeCurve Float4
Size_b"]
node35 [shape="box" color="lightslategray" style="filled" label="VFXValue`1 Curve (UnityEngine.AnimationCurve)"]
node36 [shape="box" color="cyan" style="filled" label="VFXValue`1 Float (20)
Blend_b"]
node37 [shape="box" color="cyan" style="filled" label="VFXExpressionBakeCurve Float4
Velocity_x_c"]
node38 [shape="box" color="lightslategray" style="filled" label="VFXValue`1 Curve (UnityEngine.AnimationCurve)"]
node39 [shape="box" color="cyan" style="filled" label="VFXExpressionBakeCurve Float4
Velocity_y_c"]
node40 [shape="box" color="lightslategray" style="filled" label="VFXValue`1 Curve (UnityEngine.AnimationCurve)"]
node41 [shape="box" color="cyan" style="filled" label="VFXExpressionBakeCurve Float4
Velocity_z_c"]
node42 [shape="box" color="lightslategray" style="filled" label="VFXValue`1 Curve (UnityEngine.AnimationCurve)"]
node43 [shape="box" color="cyan" style="filled" label="VFXExpressionBakeGradient Float
gradient"]
node44 [shape="box" label="VFXValue`1 ColorGradient (UnityEngine.Gradient)"]
node45 [shape="box" color="steelblue" style="filled" label="VFXTexture2DValue Texture2D (Default-ParticleSystem (UnityEngine.Texture2D))
mainTexture"]
node1 -> node0 [headlabel="0"]
node2 -> node0 [headlabel="1"]
node9 -> node8 
node9 -> node10 
node12 -> node11 [headlabel="0"]
node14 -> node11 [headlabel="1"]
node15 -> node11 [headlabel="2"]
node13 -> node12 
node13 -> node14 
node13 -> node15 
node17 -> node16 
node18 -> node17 [headlabel="0"]
node19 -> node17 [headlabel="1"]
node20 -> node19 [headlabel="0"]
node20 -> node19 [headlabel="1"]
node20 -> node19 [headlabel="2"]
node24 -> node23 [headlabel="0"]
node24 -> node23 [headlabel="1"]
node24 -> node23 [headlabel="2"]
node25 -> node24 
node27 -> node26 [headlabel="0"]
node27 -> node26 [headlabel="1"]
node27 -> node26 [headlabel="2"]
node25 -> node27 
node31 -> node30 [headlabel="0"]
node32 -> node30 [headlabel="1"]
node35 -> node34 
node38 -> node37 
node40 -> node39 
node42 -> node41 
node44 -> node43 
}
