%YAML 1.1
%TAG !u! tag:unity3d.com,2011:
--- !u!21 &2100000
Material:
  serializedVersion: 6
  m_ObjectHideFlags: 0
  m_CorrespondingSourceObject: {fileID: 0}
  m_PrefabInstance: {fileID: 0}
  m_PrefabAsset: {fileID: 0}
  m_Name: M_VertSapinDissolve 1
  m_Shader: {fileID: -6465566751694194690, guid: 602e52de4abd8b54cb25a0756d890a0e,
    type: 3}
  m_ShaderKeywords: FRESNEL_ON
  m_LightmapFlags: 4
  m_EnableInstancingVariants: 0
  m_DoubleSidedGI: 0
  m_CustomRenderQueue: -1
  stringTagMap: {}
  disabledShaderPasses: []
  m_SavedProperties:
    serializedVersion: 3
    m_TexEnvs:
    - Texture2D_9620042:
        m_Texture: {fileID: 2800000, guid: 9cbb4603dd0aca348887778dde4928cf, type: 3}
        m_Scale: {x: 1, y: 1}
        m_Offset: {x: 0, y: 0}
    - _AlbedoTex:
        m_Texture: {fileID: 0}
        m_Scale: {x: 1, y: 1}
        m_Offset: {x: 0, y: 0}
    - _BaseMap:
        m_Texture: {fileID: 0}
        m_Scale: {x: 1, y: 1}
        m_Offset: {x: 0, y: 0}
    - _BumpMap:
        m_Texture: {fileID: 0}
        m_Scale: {x: 1, y: 1}
        m_Offset: {x: 0, y: 0}
    - _EmissionMap:
        m_Texture: {fileID: 0}
        m_Scale: {x: 1, y: 1}
        m_Offset: {x: 0, y: 0}
    - _LightRamp:
        m_Texture: {fileID: 2800000, guid: 81a2437c4c5511e47875f5321861a9ad, type: 3}
        m_Scale: {x: 1, y: 1}
        m_Offset: {x: 0, y: 0}
    - _MainTex:
        m_Texture: {fileID: 0}
        m_Scale: {x: 1, y: 1}
        m_Offset: {x: 0, y: 0}
    - _MetallicGlossMap:
        m_Texture: {fileID: 0}
        m_Scale: {x: 1, y: 1}
        m_Offset: {x: 0, y: 0}
    - _NormalTex:
        m_Texture: {fileID: 2800000, guid: e86843c94c92be747b02c7859ba20bee, type: 3}
        m_Scale: {x: 1, y: 1}
        m_Offset: {x: 0, y: 0}
    - _OcclusionMap:
        m_Texture: {fileID: 0}
        m_Scale: {x: 1, y: 1}
        m_Offset: {x: 0, y: 0}
    - _SpecGlossMap:
        m_Texture: {fileID: 0}
        m_Scale: {x: 1, y: 1}
        m_Offset: {x: 0, y: 0}
    m_Floats:
    - BOOLEAN_FBDEA92C: 0
    - FRESNEL: 1
    - Vector1_2605BE63: 29.63
    - Vector1_33EB9E01: 0
    - Vector1_364C7869: 0.19
    - Vector1_5158C168: 1
    - Vector1_62FA8B1A: 1
    - Vector1_668FBD9C: 2
    - Vector1_76F6D387: -0.27
    - Vector1_77A372CF: 0
    - Vector1_B6BAADA4: 0
    - Vector1_B72F4217: 0.5
    - Vector1_B9BC365: 1.76
    - Vector1_C6841AB0: 0.49
    - Vector1_C88C7089: 1.11
    - Vector1_D28BCDE5: 0
    - Vector1_EB283D6: 1.81
    - Vector1_EF3CEA3: 0
    - _AlphaClip: 0
    - _Blend: 0
    - _BumpScale: 1
    - _Cull: 2
    - _Cutoff: 0.5
    - _DstBlend: 0
    - _EnvironmentReflections: 1
    - _GlossMapScale: 0
    - _Glossiness: 0
    - _GlossyReflections: 0
    - _Metallic: 0
    - _OcclusionStrength: 1
    - _QueueOffset: 0
    - _ReceiveShadows: 1
    - _RimStrength: 0.001
    - _Smoothness: 0
    - _SmoothnessTextureChannel: 0
    - _SpecularHighlights: 1
    - _SrcBlend: 1
    - _Surface: 0
    - _WorkflowMode: 1
    - _ZWrite: 1
    m_Colors:
    - Color_301845CE: {r: 0, g: 1, b: 0.8982549, a: 0}
    - Color_579E49D7: {r: 0, g: 1, b: 0.96650904, a: 0}
    - Color_E797161B: {r: 0, g: 0.754717, b: 0.011979589, a: 1}
    - Vector2_537B94D: {r: 1, g: 1, b: 0, a: 0}
    - _BaseColor: {r: 0.114935726, g: 0.038530886, b: 0.008261558, a: 1}
    - _Color: {r: 0.114935726, g: 0.038530886, b: 0.008261558, a: 1}
    - _EmissionColor: {r: 0, g: 0, b: 0, a: 1}
    - _SpecColor: {r: 0.19999996, g: 0.19999996, b: 0.19999996, a: 1}
    - _Tint: {r: 1, g: 1, b: 1, a: 1}
--- !u!114 &7529753913472040710
MonoBehaviour:
  m_ObjectHideFlags: 11
  m_CorrespondingSourceObject: {fileID: 0}
  m_PrefabInstance: {fileID: 0}
  m_PrefabAsset: {fileID: 0}
  m_GameObject: {fileID: 0}
  m_Enabled: 1
  m_EditorHideFlags: 0
  m_Script: {fileID: 11500000, guid: d0353a89b1f911e48b9e16bdc9f2e058, type: 3}
  m_Name: 
  m_EditorClassIdentifier: 
  version: 1
