%YAML 1.1
%TAG !u! tag:unity3d.com,2011:
--- !u!1 &2961354313948887767
GameObject:
  m_ObjectHideFlags: 0
  m_CorrespondingSourceObject: {fileID: 0}
  m_PrefabInstance: {fileID: 0}
  m_PrefabAsset: {fileID: 0}
  serializedVersion: 6
  m_Component:
  - component: {fileID: 2961354313948887784}
  - component: {fileID: 4054718797077177042}
  m_Layer: 0
  m_Name: Maison6
  m_TagString: Untagged
  m_Icon: {fileID: 0}
  m_NavMeshLayer: 0
  m_StaticEditorFlags: 0
  m_IsActive: 1
--- !u!4 &2961354313948887784
Transform:
  m_ObjectHideFlags: 0
  m_CorrespondingSourceObject: {fileID: 0}
  m_PrefabInstance: {fileID: 0}
  m_PrefabAsset: {fileID: 0}
  m_GameObject: {fileID: 2961354313948887767}
  m_LocalRotation: {x: 0, y: 0, z: 0, w: 1}
  m_LocalPosition: {x: 0, y: 0, z: 0}
  m_LocalScale: {x: 1.4, y: 1.4, z: 1.4}
  m_Children:
  - {fileID: 3355851815233852962}
  m_Father: {fileID: 0}
  m_RootOrder: 0
  m_LocalEulerAnglesHint: {x: 0, y: 0, z: 0}
--- !u!114 &4054718797077177042
MonoBehaviour:
  m_ObjectHideFlags: 0
  m_CorrespondingSourceObject: {fileID: 0}
  m_PrefabInstance: {fileID: 0}
  m_PrefabAsset: {fileID: 0}
  m_GameObject: {fileID: 2961354313948887767}
  m_Enabled: 1
  m_EditorHideFlags: 0
  m_Script: {fileID: 11500000, guid: 0eebb5412ff41a749b613d88e786c554, type: 3}
  m_Name: 
  m_EditorClassIdentifier: 
  houseRender: {fileID: 4528736312328645965}
  allPossibleColors:
  - colorName: Red
    color: {r: 1, g: 0.033018887, b: 0.033018887, a: 1}
  - colorName: Blue
    color: {r: 0, g: 0.49018788, b: 1, a: 1}
  - colorName: Cyan
    color: {r: 0, g: 0.86018825, b: 1, a: 1}
  - colorName: Green
    color: {r: 0.41960785, g: 1, b: 0.45490196, a: 1}
  - colorName: Orange
    color: {r: 1, g: 0.5516948, b: 0, a: 1}
  - colorName: Pink
    color: {r: 1, g: 0.5801887, b: 0.87440103, a: 1}
  - colorName: Yellow
    color: {r: 1, g: 0.99215686, b: 0, a: 1}
--- !u!1001 &2961354315465257417
PrefabInstance:
  m_ObjectHideFlags: 0
  serializedVersion: 2
  m_Modification:
    m_TransformParent: {fileID: 2961354313948887784}
    m_Modifications:
    - target: {fileID: -8679921383154817045, guid: a130c37c4e61e934f9a15f6d7c144812,
        type: 3}
      propertyPath: m_LocalPosition.x
      value: 0
      objectReference: {fileID: 0}
    - target: {fileID: -8679921383154817045, guid: a130c37c4e61e934f9a15f6d7c144812,
        type: 3}
      propertyPath: m_LocalPosition.y
      value: 0
      objectReference: {fileID: 0}
    - target: {fileID: -8679921383154817045, guid: a130c37c4e61e934f9a15f6d7c144812,
        type: 3}
      propertyPath: m_LocalPosition.z
      value: 0
      objectReference: {fileID: 0}
    - target: {fileID: -8679921383154817045, guid: a130c37c4e61e934f9a15f6d7c144812,
        type: 3}
      propertyPath: m_LocalRotation.x
      value: -0.7071068
      objectReference: {fileID: 0}
    - target: {fileID: -8679921383154817045, guid: a130c37c4e61e934f9a15f6d7c144812,
        type: 3}
      propertyPath: m_LocalRotation.y
      value: -0
      objectReference: {fileID: 0}
    - target: {fileID: -8679921383154817045, guid: a130c37c4e61e934f9a15f6d7c144812,
        type: 3}
      propertyPath: m_LocalRotation.z
      value: -0
      objectReference: {fileID: 0}
    - target: {fileID: -8679921383154817045, guid: a130c37c4e61e934f9a15f6d7c144812,
        type: 3}
      propertyPath: m_LocalRotation.w
      value: 0.7071067
      objectReference: {fileID: 0}
    - target: {fileID: -8679921383154817045, guid: a130c37c4e61e934f9a15f6d7c144812,
        type: 3}
      propertyPath: m_RootOrder
      value: 0
      objectReference: {fileID: 0}
    - target: {fileID: -8679921383154817045, guid: a130c37c4e61e934f9a15f6d7c144812,
        type: 3}
      propertyPath: m_LocalEulerAnglesHint.x
      value: 0
      objectReference: {fileID: 0}
    - target: {fileID: -8679921383154817045, guid: a130c37c4e61e934f9a15f6d7c144812,
        type: 3}
      propertyPath: m_LocalEulerAnglesHint.y
      value: 0
      objectReference: {fileID: 0}
    - target: {fileID: -8679921383154817045, guid: a130c37c4e61e934f9a15f6d7c144812,
        type: 3}
      propertyPath: m_LocalEulerAnglesHint.z
      value: 0
      objectReference: {fileID: 0}
    - target: {fileID: -8679921383154817045, guid: a130c37c4e61e934f9a15f6d7c144812,
        type: 3}
      propertyPath: m_LocalScale.x
      value: 200
      objectReference: {fileID: 0}
    - target: {fileID: -8679921383154817045, guid: a130c37c4e61e934f9a15f6d7c144812,
        type: 3}
      propertyPath: m_LocalScale.y
      value: 200
      objectReference: {fileID: 0}
    - target: {fileID: -8679921383154817045, guid: a130c37c4e61e934f9a15f6d7c144812,
        type: 3}
      propertyPath: m_LocalScale.z
      value: 200
      objectReference: {fileID: 0}
    - target: {fileID: -7511558181221131132, guid: a130c37c4e61e934f9a15f6d7c144812,
        type: 3}
      propertyPath: m_Materials.Array.data[0]
      value: 
      objectReference: {fileID: 2100000, guid: 3f8f46178e360ae4fbcbeb722c6d66f6, type: 2}
    - target: {fileID: -4499598860191799210, guid: a130c37c4e61e934f9a15f6d7c144812,
        type: 3}
      propertyPath: m_TagString
      value: Sol
      objectReference: {fileID: 0}
    - target: {fileID: -2805505756001616869, guid: a130c37c4e61e934f9a15f6d7c144812,
        type: 3}
      propertyPath: m_TagString
      value: Sol
      objectReference: {fileID: 0}
    - target: {fileID: -2805505756001616869, guid: a130c37c4e61e934f9a15f6d7c144812,
        type: 3}
      propertyPath: m_Layer
      value: 17
      objectReference: {fileID: 0}
    - target: {fileID: 919132149155446097, guid: a130c37c4e61e934f9a15f6d7c144812,
        type: 3}
      propertyPath: m_Name
      value: MAISON6
      objectReference: {fileID: 0}
    - target: {fileID: 919132149155446097, guid: a130c37c4e61e934f9a15f6d7c144812,
        type: 3}
      propertyPath: m_Layer
      value: 0
      objectReference: {fileID: 0}
    - target: {fileID: 919132149155446097, guid: a130c37c4e61e934f9a15f6d7c144812,
        type: 3}
      propertyPath: m_TagString
      value: Untagged
      objectReference: {fileID: 0}
    - target: {fileID: 2810787514081214131, guid: a130c37c4e61e934f9a15f6d7c144812,
        type: 3}
      propertyPath: m_Materials.Array.data[0]
      value: 
      objectReference: {fileID: 2100000, guid: a1476e70a65a450498bd9fdc6780e543, type: 2}
    m_RemovedComponents: []
  m_SourcePrefab: {fileID: 100100000, guid: a130c37c4e61e934f9a15f6d7c144812, type: 3}
--- !u!4 &3355851815233852962 stripped
Transform:
  m_CorrespondingSourceObject: {fileID: -8679921383154817045, guid: a130c37c4e61e934f9a15f6d7c144812,
    type: 3}
  m_PrefabInstance: {fileID: 2961354315465257417}
  m_PrefabAsset: {fileID: 0}
--- !u!23 &4528736312328645965 stripped
MeshRenderer:
  m_CorrespondingSourceObject: {fileID: -7511558181221131132, guid: a130c37c4e61e934f9a15f6d7c144812,
    type: 3}
  m_PrefabInstance: {fileID: 2961354315465257417}
  m_PrefabAsset: {fileID: 0}
