%YAML 1.1
%TAG !u! tag:unity3d.com,2011:
--- !u!21 &2100000
Material:
  serializedVersion: 6
  m_ObjectHideFlags: 0
  m_CorrespondingSourceObject: {fileID: 0}
  m_PrefabInstance: {fileID: 0}
  m_PrefabAsset: {fileID: 0}
  m_Name: M_LobbyGround
  m_Shader: {fileID: -6465566751694194690, guid: fce56bcce856c6c4986f2368651af694,
    type: 3}
  m_ShaderKeywords: 
  m_LightmapFlags: 4
  m_EnableInstancingVariants: 0
  m_DoubleSidedGI: 0
  m_CustomRenderQueue: -1
  stringTagMap: {}
  disabledShaderPasses: []
  m_SavedProperties:
    serializedVersion: 3
    m_TexEnvs:
    - Texture2D_FC1F04A3:
        m_Texture: {fileID: 2800000, guid: 3225d76837f58b5488e8b894e5663051, type: 3}
        m_Scale: {x: 1, y: 1}
        m_Offset: {x: 0, y: 0}
    - Texture2D_FCF921CA:
        m_Texture: {fileID: 2800000, guid: afce657b20be12943b291e68f714ae53, type: 3}
        m_Scale: {x: 1, y: 1}
        m_Offset: {x: 0, y: 0}
    m_Floats:
    - Vector1_5351CB01: 0.25
    - Vector1_6E838FEE: 0
    m_Colors:
    - Vector2_731EDD77: {r: 1, g: 1, b: 0, a: 0}
    - Vector2_FB5463F0: {r: 150, g: 150, b: 0, a: 0}
